…
    ## # A tibble: 647 x 8
    ##        z nem   eletkor iskvegz      munkakor         kereset eletkor_group    id
    ##    <dbl> <chr>   <int> <ord>        <ord>              <dbl> <ord>         <int>
    ##  1 0.521 Férfi      50 Egyetem/Msc  Legfelsőbb veze~   2411. 50-59             1
    ##  2 0.516 Nő         51 Egyetem/Msc  Legfelsőbb veze~   1073. 50-59             2
    ##  3 0.507 Férfi      53 Egyetem/Msc  Legfelsőbb veze~   1990. 50-59             3
    ##  4 0.455 Nő         64 Egyetem/Msc  Legfelsőbb veze~   1609. 60-69             4
    ##  5 0.393 Férfi      32 Főiskola/Bsc Tanszék/intézet~    706. 30-39             5
    ##  6 0.477 Nő         33 Egyetem/Msc  Tanszék/intézet~    994. 30-39             6
    ##  7 0.384 Nő         34 Főiskola/Bsc Tanszék/intézet~    632. 30-39             7
    ##  8 0.380 Férfi      35 Főiskola/Bsc Tanszék/intézet~    512. 30-39             8
    ##  9 0.468 Férfi      35 Egyetem/Msc  Tanszék/intézet~    987. 30-39             9
    ## 10 0.468 Nő         35 Egyetem/Msc  Tanszék/intézet~    880. 30-39            10
    ## # ... with 637 more rows
…
